{"id":28699,"text":"Stefan Konrad Raab (* 20. Oktober 1966 in Köln ) ist ein deutscher Fernseh - und Musikproduzent , Komponist , Singer-Songwriter , Entertainer , Unternehmer sowie ehemaliger Fernsehmoderator und Komiker .","name":"Stefan Raab","entities":[{"id":17434,"label":"PER","start_offset":0,"end_offset":18},{"id":17435,"label":"LOC","start_offset":42,"end_offset":46}],"relations":[{"id":3591,"from_id":17434,"to_id":17435,"type":"geboren_in"}]}
{"id":28700,"text":"Er wurde vor allem durch die Shows TV total und Schlag den Raab bekannt .","name":"Stefan Raab","entities":[{"id":17436,"label":"MISC","start_offset":35,"end_offset":43},{"id":17437,"label":"MISC","start_offset":48,"end_offset":63},{"id":20440,"label":"Coref_PER","start_offset":0,"end_offset":2}],"relations":[]}
{"id":28701,"text":"Zwischen 1998 und 2012 schrieb und produzierte er mehrere deutsche Beiträge für den Eurovision Song Contest und trat dort im Jahr 2000 auch selbst als Sänger auf .","name":"Stefan Raab","entities":[{"id":17438,"label":"MISC","start_offset":84,"end_offset":107},{"id":20441,"label":"Coref_PER","start_offset":47,"end_offset":49}],"relations":[]}
{"id":28702,"text":"2015 beendete er seine aktive Fernsehkarriere , ist aber weiterhin als Produzent tätig .","name":"Stefan Raab","entities":[{"id":20442,"label":"Coref_PER","start_offset":14,"end_offset":16}],"relations":[]}
{"id":28703,"text":"Stefan Raab wuchs zusammen mit einer Schwester in Köln-Sülz auf , wo seine Eltern unter Inhaberschaft seines Vaters Konrad ( 1935 – 2021 ) eine Metzgerei betrieben .","name":"Stefan Raab","entities":[{"id":17439,"label":"PER","start_offset":0,"end_offset":11},{"id":17440,"label":"LOC","start_offset":50,"end_offset":59},{"id":17441,"label":"PER","start_offset":116,"end_offset":122}],"relations":[{"id":3594,"from_id":17441,"to_id":17440,"type":"wohnt_in"},{"id":3593,"from_id":17439,"to_id":17441,"type":"Eltern\/Kind"},{"id":3592,"from_id":17439,"to_id":17440,"type":"wohnt_in"}]}
{"id":28704,"text":"In seiner Schulzeit war er Ministrant .","name":"Stefan Raab","entities":[{"id":20443,"label":"Coref_PER","start_offset":24,"end_offset":26}],"relations":[]}
{"id":28705,"text":"Nach eigener Aussage bekam er in der 6 .","name":"Stefan Raab","entities":[{"id":20444,"label":"Coref_PER","start_offset":27,"end_offset":29}],"relations":[]}
{"id":28706,"text":"Klasse von seinem Vater als erstes Instrument ein Schlagzeug geschenkt und spielte danach in verschiedenen Schülerbands .","name":"Stefan Raab","entities":[],"relations":[]}
{"id":28707,"text":"Zusätzlich brachte er sich autodidaktisch das Spielen weiterer Musikinstrumente bei .","name":"Stefan Raab","entities":[{"id":20445,"label":"Coref_PER","start_offset":19,"end_offset":21}],"relations":[]}
{"id":28708,"text":"Nach dem Abitur 1986 am Aloisiuskolleg in Bonn-Bad Godesberg leistete er von 1986 bis 1987 seinen Grundwehrdienst in der Flugbereitschaft BMVg in der Luftwaffenkaserne Wahn in Köln-Wahn .","name":"Stefan Raab","entities":[{"id":17442,"label":"ORG","start_offset":24,"end_offset":38},{"id":17443,"label":"LOC","start_offset":42,"end_offset":60},{"id":17444,"label":"LOC","start_offset":168,"end_offset":172},{"id":17445,"label":"LOC","start_offset":176,"end_offset":185},{"id":20446,"label":"Coref_PER","start_offset":70,"end_offset":72},{"id":20447,"label":"ORG","start_offset":121,"end_offset":142}],"relations":[{"id":3979,"from_id":17444,"to_id":17445,"type":"liegt_in"},{"id":3977,"from_id":20446,"to_id":20447,"type":"arbeitet_bei"},{"id":3976,"from_id":20446,"to_id":17443,"type":"Ausbildung_in"},{"id":3975,"from_id":17442,"to_id":20446,"type":"Ausbildung_an"},{"id":3980,"from_id":20446,"to_id":17444,"type":"arbeitet_in"}]}
{"id":28709,"text":"Anschließend studierte er fünf Semester Rechtswissenschaft in Köln und Bielefeld .","name":"Stefan Raab","entities":[{"id":20448,"label":"Coref_PER","start_offset":23,"end_offset":25},{"id":17446,"label":"LOC","start_offset":62,"end_offset":66},{"id":17447,"label":"LOC","start_offset":71,"end_offset":80}],"relations":[{"id":3982,"from_id":20448,"to_id":17447,"type":"Ausbildung_in"},{"id":3981,"from_id":20448,"to_id":17446,"type":"Ausbildung_in"}]}
{"id":28710,"text":"Parallel dazu absolvierte er eine Metzgerlehre im elterlichen Betrieb , die er im Juni 1990 als Bezirksbester der Handwerkskammer Köln mit der Gesellenprüfung abschloss .","name":"Stefan Raab","entities":[{"id":20449,"label":"Coref_PER","start_offset":26,"end_offset":28},{"id":20450,"label":"Coref_PER","start_offset":76,"end_offset":78},{"id":17448,"label":"ORG","start_offset":114,"end_offset":134}],"relations":[{"id":3984,"from_id":20450,"to_id":17448,"type":"Ausbildung_in"}]}
{"id":28711,"text":"Er lebt im Kölner Stadtteil Hahnwald und hat mit seiner Lebensgefährtin zwei Töchter (* 2004 und 2006 ) .","name":"Stefan Raab","entities":[{"id":20451,"label":"Coref_PER","start_offset":0,"end_offset":2},{"id":17449,"label":"LOC","start_offset":28,"end_offset":36}],"relations":[{"id":3986,"from_id":20451,"to_id":17449,"type":"wohnt_in"}]}
{"id":28712,"text":"Seit seinem TV-Abschied lebt Raab völlig zurückgezogen .","name":"Stefan Raab","entities":[{"id":17450,"label":"PER","start_offset":29,"end_offset":33}],"relations":[]}
{"id":28713,"text":"Er ist medienscheu , besucht seit Mitte der 2000er Jahre keine Talkshows mehr , er meidet den Roten Teppich und gibt grundsätzlich keine Interviews .","name":"Stefan Raab","entities":[{"id":20454,"label":"Coref_PER","start_offset":80,"end_offset":82},{"id":20453,"label":"Coref_PER","start_offset":0,"end_offset":2}],"relations":[]}
{"id":28714,"text":"Raab ist nicht in den sozialen Netzwerken aktiv .","name":"Stefan Raab","entities":[{"id":17451,"label":"PER","start_offset":0,"end_offset":4}],"relations":[]}
{"id":28715,"text":"Fotos mit Fans lehnt er konsequent ab .","name":"Stefan Raab","entities":[{"id":20455,"label":"Coref_PER","start_offset":21,"end_offset":23}],"relations":[]}
{"id":28716,"text":"Sein Medienanwalt Heiko Klatt verhindert , dass Informationen über Raabs Privatleben in der Öffentlichkeit bekannt werden .","name":"Stefan Raab","entities":[{"id":17452,"label":"PER","start_offset":18,"end_offset":29},{"id":17453,"label":"PER","start_offset":67,"end_offset":72}],"relations":[]}
{"id":28717,"text":"Raab machte sich 1990 als Produzent von Werbejingles selbstständig ; er erstellte Jingles und Spots für das ARD-Morgenmagazin , die Talkshows Bärbel Schäfer und Veronas Welt sowie für die Zahnpasta Blend-a-med. Außerdem produzierte er Musik unter anderem für Bürger Lars Dietrich , Die Prinzen und das RIAS-Rundfunkorchester .","name":"Stefan Raab","entities":[{"id":20456,"label":"Coref_PER","start_offset":69,"end_offset":71},{"id":20457,"label":"ORG","start_offset":108,"end_offset":125},{"id":20458,"label":"ORG","start_offset":142,"end_offset":156},{"id":20459,"label":"ORG","start_offset":161,"end_offset":173},{"id":20460,"label":"Coref_PER","start_offset":232,"end_offset":234},{"id":17454,"label":"PER","start_offset":0,"end_offset":4},{"id":17457,"label":"ORG","start_offset":198,"end_offset":210},{"id":17458,"label":"PER","start_offset":266,"end_offset":279},{"id":17459,"label":"ORG","start_offset":282,"end_offset":293},{"id":17460,"label":"ORG","start_offset":302,"end_offset":324}],"relations":[{"id":3992,"from_id":20456,"to_id":20457,"type":"kollaboriert_mit"},{"id":3993,"from_id":20456,"to_id":20458,"type":"kollaboriert_mit"},{"id":3998,"from_id":20460,"to_id":17460,"type":"kollaboriert_mit"},{"id":3995,"from_id":20456,"to_id":17457,"type":"kollaboriert_mit"},{"id":3997,"from_id":20460,"to_id":17459,"type":"kollaboriert_mit"},{"id":3996,"from_id":20460,"to_id":17458,"type":"kollaboriert_mit"}]}
{"id":28718,"text":"Raab betreibt einen eigenen Musikverlag , den Roof Groove Musikverlag Stefan Raab , der die Rechte seiner musikalischen Werke verwaltet .","name":"Stefan Raab","entities":[{"id":17461,"label":"PER","start_offset":0,"end_offset":4},{"id":17462,"label":"ORG","start_offset":46,"end_offset":81}],"relations":[]}
{"id":28719,"text":"Der Name spielt auf den Ort des ersten Studios an , das sich in seiner Dachgeschosswohnung befand .","name":"Stefan Raab","entities":[{"id":20461,"label":"Coref_PER","start_offset":64,"end_offset":70}],"relations":[]}
{"id":28720,"text":"Veröffentlicht wird unter dem Musiklabel RARE (= Raab Records ) .","name":"Stefan Raab","entities":[{"id":17463,"label":"ORG","start_offset":41,"end_offset":45},{"id":17464,"label":"ORG","start_offset":49,"end_offset":61}],"relations":[]}
{"id":28721,"text":"Ebenfalls 1990 erschien Raabs erstes Album The Best of Schäng and the Gäng Vol. 3 , an dem der Jazz-Trompeter Till Brönner mitwirkte , 1993 folgte das Album Get Ready .","name":"Stefan Raab","entities":[{"id":17465,"label":"PER","start_offset":24,"end_offset":29},{"id":17466,"label":"MISC","start_offset":43,"end_offset":81},{"id":17467,"label":"PER","start_offset":110,"end_offset":122},{"id":17468,"label":"MISC","start_offset":157,"end_offset":166}],"relations":[]}
{"id":28722,"text":"Im November 1993 bot Raab dem Musikfernsehsender VIVA selbstentworfene Programmjingles an .","name":"Stefan Raab","entities":[{"id":17469,"label":"PER","start_offset":21,"end_offset":25},{"id":17470,"label":"ORG","start_offset":49,"end_offset":53}],"relations":[]}
{"id":28723,"text":"Nach einem Casting wurde ihm die Moderation der Sendung Vivasion angeboten , die er von Dezember 1993 bis Dezember 1998 moderierte .","name":"Stefan Raab","entities":[{"id":20462,"label":"Coref_PER","start_offset":25,"end_offset":28},{"id":20463,"label":"Coref_PER","start_offset":81,"end_offset":83},{"id":17471,"label":"MISC","start_offset":56,"end_offset":64}],"relations":[]}
{"id":28724,"text":"Außerdem moderierte er 1995 und 1996 monatlich die Sendung Ma’ kuck’n .","name":"Stefan Raab","entities":[{"id":20464,"label":"Coref_PER","start_offset":20,"end_offset":22},{"id":17472,"label":"MISC","start_offset":59,"end_offset":69}],"relations":[]}
{"id":28725,"text":"Entdeckt wurde Raab von Aufnahmeleiter Marcus Wolter , der später auch die Fernsehshow TV total entwickelte .","name":"Stefan Raab","entities":[{"id":17473,"label":"PER","start_offset":15,"end_offset":19},{"id":17474,"label":"PER","start_offset":39,"end_offset":52},{"id":17475,"label":"MISC","start_offset":87,"end_offset":95}],"relations":[]}
{"id":28726,"text":"1994 sang Raab in seiner Fernsehsendung Vivasion während der Berichterstattung zur Fußball-Weltmeisterschaft live einen Rap-Song über den damaligen deutschen Bundestrainer Berti Vogts .","name":"Stefan Raab","entities":[{"id":17476,"label":"PER","start_offset":10,"end_offset":14},{"id":17477,"label":"MISC","start_offset":40,"end_offset":48},{"id":17478,"label":"PER","start_offset":172,"end_offset":183}],"relations":[]}
{"id":28727,"text":"Kurz darauf veröffentlichten Stefan Raab & die Bekloppten dieses Lied unter dem Titel Böörti Böörti Vogts .","name":"Stefan Raab","entities":[{"id":17479,"label":"PER","start_offset":29,"end_offset":40},{"id":17480,"label":"MISC","start_offset":86,"end_offset":105}],"relations":[]}
{"id":28728,"text":"Der Titel erreichte im Juli 1994 Platz vier der deutschen Hitparade .","name":"Stefan Raab","entities":[],"relations":[]}
{"id":28729,"text":"1995 nahm Raab zusammen mit Bürger Lars Dietrich und Jürgen Drews eine Coverversion des Songs Ein Bett im Kornfeld auf .","name":"Stefan Raab","entities":[{"id":17481,"label":"PER","start_offset":10,"end_offset":14},{"id":17482,"label":"PER","start_offset":35,"end_offset":48},{"id":17483,"label":"PER","start_offset":53,"end_offset":65},{"id":17484,"label":"MISC","start_offset":94,"end_offset":114}],"relations":[{"id":3595,"from_id":17481,"to_id":17483,"type":"kollaboriert_mit"},{"id":4000,"from_id":17482,"to_id":17483,"type":"kollaboriert_mit"},{"id":3999,"from_id":17481,"to_id":17483,"type":"kollaboriert_mit"}]}
{"id":28730,"text":"Diese Version erreichte Platz 27 der deutschen Singlehitparade .","name":"Stefan Raab","entities":[],"relations":[]}
{"id":28731,"text":"Im März 1996 bekam Raab für das Lied Hier kommt die Maus , das zum 25 .","name":"Stefan Raab","entities":[{"id":17485,"label":"PER","start_offset":19,"end_offset":23},{"id":17486,"label":"MISC","start_offset":37,"end_offset":56}],"relations":[]}
{"id":28732,"text":"Geburtstag der Kinderfernsehsendung Die Sendung mit der Maus veröffentlicht wurde , eine Goldene Schallplatte .","name":"Stefan Raab","entities":[{"id":17487,"label":"MISC","start_offset":36,"end_offset":60}],"relations":[]}
{"id":28733,"text":"Das Lied stieg bis auf Platz zwei der deutschen Hitparade .","name":"Stefan Raab","entities":[],"relations":[]}
{"id":28734,"text":"Mit dem Echo 1997 erhielt er die Auszeichnung als bester nationaler Produzent des Jahres für sein Album Schlimmer Finger .","name":"Stefan Raab","entities":[{"id":17488,"label":"MISC","start_offset":8,"end_offset":12},{"id":17489,"label":"MISC","start_offset":104,"end_offset":120}],"relations":[]}
{"id":28735,"text":"Im gleichen Jahr moderierte Raab für den WDR \/ Eins Live regelmäßig die zweistündige Radio-Livesendung Raabio , eine Radio-Entertainment-Show mit Musik .","name":"Stefan Raab","entities":[{"id":17490,"label":"PER","start_offset":28,"end_offset":32},{"id":17491,"label":"ORG","start_offset":41,"end_offset":44},{"id":17492,"label":"ORG","start_offset":47,"end_offset":56},{"id":17493,"label":"MISC","start_offset":103,"end_offset":109}],"relations":[{"id":3598,"from_id":17490,"to_id":17492,"type":"arbeitet_bei"},{"id":3597,"from_id":17490,"to_id":17491,"type":"arbeitet_bei"}]}
{"id":28736,"text":"Außerdem nahm Raab Telefon-Comedy-Folgen auf , bei denen er unter dem Pseudonym „ Professor Hase “ Menschen anrief und hereinlegte .","name":"Stefan Raab","entities":[{"id":20465,"label":"PER","start_offset":82,"end_offset":96},{"id":17494,"label":"PER","start_offset":14,"end_offset":18}],"relations":[{"id":4001,"from_id":17494,"to_id":20465,"type":"neuer_Name"}]}
{"id":28737,"text":"Unter dem Pseudonym „ Alf Igel “ – eine Anspielung auf Ralph Siegel – komponierte Raab im Frühjahr 1998 das Lied Guildo hat euch lieb !","name":"Stefan Raab","entities":[{"id":20466,"label":"MISC","start_offset":113,"end_offset":134},{"id":17497,"label":"PER","start_offset":55,"end_offset":67},{"id":17498,"label":"PER","start_offset":82,"end_offset":86},{"id":17496,"label":"PER","start_offset":22,"end_offset":30}],"relations":[{"id":4002,"from_id":17496,"to_id":17498,"type":"neuer_Name"}]}
{"id":28738,"text":"für Guildo Horn , der damit beim Eurovision Song Contest 1998 den siebten Platz von 25 Teilnehmern belegte .","name":"Stefan Raab","entities":[{"id":17501,"label":"PER","start_offset":4,"end_offset":15},{"id":17502,"label":"MISC","start_offset":33,"end_offset":56}],"relations":[]}
{"id":28739,"text":"In der deutschen Singlehitparade erreichte der Song Platz vier .","name":"Stefan Raab","entities":[],"relations":[]}
{"id":28740,"text":"Raabs 1998 gegründete Unternehmung Raab TV war von 1998 bis 2008 eine 50-Prozent-Tochter der Brainpool TV GmbH .","name":"Stefan Raab","entities":[{"id":17503,"label":"PER","start_offset":0,"end_offset":5},{"id":17504,"label":"ORG","start_offset":35,"end_offset":42},{"id":17505,"label":"ORG","start_offset":93,"end_offset":110}],"relations":[]}
{"id":28741,"text":"Seit dem 31. Dezember 2008 ist Raab TV eine 100-Prozent-Tochter von Brainpool .","name":"Stefan Raab","entities":[{"id":17506,"label":"ORG","start_offset":31,"end_offset":38},{"id":17507,"label":"ORG","start_offset":68,"end_offset":77}],"relations":[]}
{"id":28742,"text":"Sie produziert mehrere Unterhaltungs-Sendungen wie beispielsweise elton.tv und Schlag den Star .","name":"Stefan Raab","entities":[{"id":17508,"label":"MISC","start_offset":66,"end_offset":74},{"id":17509,"label":"MISC","start_offset":79,"end_offset":94},{"id":20467,"label":"Coref_ORG","start_offset":0,"end_offset":3}],"relations":[]}
{"id":28743,"text":"Von März 1999 bis Dezember 2015 moderierte Raab die Sendung TV total des Privatsenders ProSieben , die anfangs wöchentlich ausgestrahlt wurde und seit Frühjahr 2001 viermal pro Woche lief .","name":"Stefan Raab","entities":[{"id":17510,"label":"PER","start_offset":43,"end_offset":47},{"id":17511,"label":"MISC","start_offset":60,"end_offset":68},{"id":17512,"label":"ORG","start_offset":87,"end_offset":96}],"relations":[{"id":3599,"from_id":17510,"to_id":17511,"type":"arbeitet_bei"}]}
{"id":28744,"text":"Zudem organisierte und vermarktete Raab in unregelmäßigen Abständen Show-Veranstaltungen wie die Wok-Weltmeisterschaft , den Wettbewerb Schlag den Raab , das TV total Turmspringen , verschiedene Stockcar-Rennen , eine Reihe von Poker-Nächten , einen Eisfußball-Pokal und die Autoball-Europameisterschaft .","name":"Stefan Raab","entities":[{"id":17513,"label":"PER","start_offset":35,"end_offset":39},{"id":17514,"label":"MISC","start_offset":136,"end_offset":151},{"id":17515,"label":"MISC","start_offset":158,"end_offset":179}],"relations":[]}
{"id":28745,"text":"Nach dem Start von TV total benutzte Raab Samples verschiedener Fernsehausschnitte zur Komposition eigener Lieder .","name":"Stefan Raab","entities":[{"id":17516,"label":"MISC","start_offset":19,"end_offset":27},{"id":17517,"label":"PER","start_offset":37,"end_offset":41}],"relations":[]}
{"id":28746,"text":"Zum Beispiel produzierte er im Sommer 1999 den Song Ö la Palöma Blanca der Ö La Palöma Boys .","name":"Stefan Raab","entities":[{"id":17518,"label":"MISC","start_offset":52,"end_offset":70},{"id":17519,"label":"ORG","start_offset":75,"end_offset":91},{"id":20468,"label":"Coref_PER","start_offset":25,"end_offset":27}],"relations":[]}
{"id":28747,"text":"Kurz danach folgte das Lied Maschen-Draht-Zaun , das mit Dreifach-Gold ausgezeichnet wurde .","name":"Stefan Raab","entities":[{"id":17520,"label":"MISC","start_offset":28,"end_offset":46}],"relations":[]}
{"id":28748,"text":"Im Mai 2000 nahm Raab mit dem Titel Wadde hadde dudde da ?","name":"Stefan Raab","entities":[{"id":17521,"label":"PER","start_offset":17,"end_offset":21},{"id":17522,"label":"MISC","start_offset":36,"end_offset":58}],"relations":[]}
{"id":28749,"text":"selbst am Eurovision Song Contest 2000 teil und erreichte Platz fünf .","name":"Stefan Raab","entities":[{"id":17523,"label":"MISC","start_offset":10,"end_offset":33}],"relations":[]}
{"id":28750,"text":"Im September 2000 produzierte er die Single Ho mir ma ne Flasche Bier , bei der ein Originalton des damaligen deutschen Bundeskanzlers Gerhard Schröder verwendet wurde .","name":"Stefan Raab","entities":[{"id":17524,"label":"MISC","start_offset":44,"end_offset":69},{"id":17525,"label":"PER","start_offset":135,"end_offset":151},{"id":20469,"label":"Coref_PER","start_offset":30,"end_offset":32}],"relations":[]}
{"id":28751,"text":"Im November 2001 komponierte , interpretierte und produzierte er den Song Wir kiffen .","name":"Stefan Raab","entities":[{"id":17526,"label":"MISC","start_offset":74,"end_offset":84},{"id":20470,"label":"Coref_PER","start_offset":62,"end_offset":64}],"relations":[]}
{"id":28752,"text":"Im November 2002 schrieb er das Lied Gebt das Hanf frei ! , bei dem er einen Ausspruch des deutschen Bundestagsabgeordneten Hans-Christian Ströbele benutzte .","name":"Stefan Raab","entities":[{"id":17527,"label":"MISC","start_offset":37,"end_offset":55},{"id":17528,"label":"PER","start_offset":124,"end_offset":147},{"id":20472,"label":"Coref_PER","start_offset":68,"end_offset":70},{"id":20471,"label":"Coref_PER","start_offset":25,"end_offset":27}],"relations":[]}
{"id":28753,"text":"Raab machte für verschiedene Unternehmen Werbung , unter anderem 1996 für ültje , im Jahr 1999 für Katjes und 2001 für McDonald ’s .","name":"Stefan Raab","entities":[{"id":17529,"label":"PER","start_offset":0,"end_offset":4},{"id":17530,"label":"ORG","start_offset":74,"end_offset":79},{"id":17531,"label":"ORG","start_offset":99,"end_offset":105},{"id":17532,"label":"ORG","start_offset":119,"end_offset":130}],"relations":[{"id":3601,"from_id":17529,"to_id":17532,"type":"arbeitet_bei"},{"id":3600,"from_id":17529,"to_id":17531,"type":"arbeitet_bei"}]}
{"id":28754,"text":"Dabei warfen ihm Pressestimmen vor , er „ verramsche “ sich , was Raab jedoch zurückwies .","name":"Stefan Raab","entities":[{"id":17533,"label":"PER","start_offset":66,"end_offset":70},{"id":20473,"label":"Coref_PER","start_offset":37,"end_offset":39}],"relations":[]}
{"id":28755,"text":"Im gleichen Jahr produzierte er unter dem Pseudonym Eddie Rodriguez für einen McDonald’s-Werbespot den Musiktitel Sensaçion , der Platz 30 in den deutschen Singlecharts erreichte .","name":"Stefan Raab","entities":[{"id":17534,"label":"PER","start_offset":52,"end_offset":67},{"id":17535,"label":"MISC","start_offset":114,"end_offset":123},{"id":20474,"label":"Coref_PER","start_offset":29,"end_offset":31}],"relations":[{"id":4003,"from_id":20474,"to_id":17534,"type":"neuer_Name"}]}
{"id":28756,"text":"Ende 2003 bis Anfang 2004 veranstaltete Raab den Casting-Wettbewerb SSDSGPS – Stefan sucht den Super-Grand-Prix-Star – , mit dem er einen Kandidaten für die deutsche Vorentscheidung zum Eurovision Song Contest 2004 suchte .","name":"Stefan Raab","entities":[{"id":17536,"label":"PER","start_offset":40,"end_offset":44},{"id":17537,"label":"MISC","start_offset":68,"end_offset":75},{"id":17538,"label":"MISC","start_offset":78,"end_offset":116},{"id":17539,"label":"MISC","start_offset":186,"end_offset":209}],"relations":[]}
{"id":28757,"text":"Der Gewinner dieses Wettbewerbs , Max Mutzke , gewann auch die deutsche Vorentscheidung , womit Raab zum dritten Mal an einem deutschen Beitrag zum Eurovision Song Contest beteiligt war .","name":"Stefan Raab","entities":[{"id":17540,"label":"PER","start_offset":34,"end_offset":44},{"id":17541,"label":"PER","start_offset":96,"end_offset":100},{"id":17542,"label":"MISC","start_offset":148,"end_offset":171}],"relations":[{"id":4004,"from_id":17540,"to_id":17541,"type":"Bekanntschaft"}]}
{"id":28758,"text":"Unter 24 Teilnehmern erreichte Max Mutzke den achten Platz , in der deutschen Hitparade gelang ihm direkt der Sprung auf Platz eins .","name":"Stefan Raab","entities":[{"id":17543,"label":"PER","start_offset":31,"end_offset":41}],"relations":[]}
{"id":28759,"text":"Für das Konzept von SSDSGPS erhielt Raab im darauffolgenden Jahr den Adolf-Grimme-Preis .","name":"Stefan Raab","entities":[{"id":17544,"label":"ORG","start_offset":20,"end_offset":27},{"id":17545,"label":"PER","start_offset":36,"end_offset":40},{"id":17546,"label":"MISC","start_offset":69,"end_offset":87}],"relations":[{"id":4005,"from_id":17545,"to_id":17544,"type":"arbeitet_bei"}]}
{"id":28760,"text":"Ebenfalls 2004 schrieb Raab mehrere Lieder für den Film ( T ) Raumschiff Surprise – Periode 1 von Michael „ Bully “ Herbig , darunter den als Single erschienenen Song Space Taxi .","name":"Stefan Raab","entities":[{"id":20475,"label":"PER","start_offset":98,"end_offset":122},{"id":17547,"label":"PER","start_offset":23,"end_offset":27},{"id":17548,"label":"MISC","start_offset":58,"end_offset":61},{"id":17549,"label":"MISC","start_offset":62,"end_offset":83},{"id":17550,"label":"MISC","start_offset":84,"end_offset":93},{"id":17553,"label":"MISC","start_offset":167,"end_offset":177}],"relations":[{"id":4006,"from_id":17547,"to_id":20475,"type":"Arbeitskollegen"}]}
{"id":28761,"text":"Dieses Lied singt Raab zusammen mit Herbig , Christian Tramitz und Rick Kavanian .","name":"Stefan Raab","entities":[{"id":17554,"label":"PER","start_offset":18,"end_offset":22},{"id":17555,"label":"PER","start_offset":36,"end_offset":42},{"id":17556,"label":"PER","start_offset":45,"end_offset":62},{"id":17557,"label":"PER","start_offset":67,"end_offset":80}],"relations":[{"id":3605,"from_id":17555,"to_id":17557,"type":"Arbeitskollegen"},{"id":3604,"from_id":17555,"to_id":17556,"type":"Arbeitskollegen"},{"id":3602,"from_id":17554,"to_id":17556,"type":"Arbeitskollegen"},{"id":3603,"from_id":17554,"to_id":17557,"type":"Arbeitskollegen"}]}
{"id":28762,"text":"Aus dem Soundtrack des Films koppelte Raab im darauffolgenden Jahr die Single I Want Rock aus , die er unter dem Bandnamen Dicks on Fire veröffentlichte .","name":"Stefan Raab","entities":[{"id":17558,"label":"PER","start_offset":38,"end_offset":42},{"id":17559,"label":"MISC","start_offset":78,"end_offset":89},{"id":17560,"label":"ORG","start_offset":123,"end_offset":136}],"relations":[{"id":4007,"from_id":17558,"to_id":17560,"type":"Mitglied_bei"}]}
{"id":28763,"text":"Diese Gruppe besteht aus Raab , Rick Kavanian und Max Mutzke .","name":"Stefan Raab","entities":[{"id":17561,"label":"PER","start_offset":25,"end_offset":29},{"id":17562,"label":"PER","start_offset":32,"end_offset":45},{"id":17563,"label":"PER","start_offset":50,"end_offset":60}],"relations":[{"id":3607,"from_id":17562,"to_id":17563,"type":"Gruppenmitglied"},{"id":3606,"from_id":17561,"to_id":17563,"type":"Gruppenmitglied"}]}
{"id":28764,"text":"Ebenfalls 2005 initiierte Raab in Anlehnung an den Eurovision Song Contest den Bundesvision Song Contest .","name":"Stefan Raab","entities":[{"id":17564,"label":"PER","start_offset":26,"end_offset":30},{"id":17565,"label":"MISC","start_offset":51,"end_offset":74},{"id":17566,"label":"MISC","start_offset":79,"end_offset":104}],"relations":[{"id":3608,"from_id":17564,"to_id":17566,"type":"Führungsposition_in"}]}
{"id":28765,"text":"Dabei trat jeder Teilnehmer für eines der 16 deutschen Bundesländer an .","name":"Stefan Raab","entities":[],"relations":[]}
{"id":28766,"text":"Nach eigener Aussage wollte Raab mit diesem Wettbewerb deutsche Musiker fördern .","name":"Stefan Raab","entities":[{"id":17567,"label":"PER","start_offset":28,"end_offset":32}],"relations":[]}
{"id":28767,"text":"Daher sangen die Teilnehmer dieses Wettbewerbs ihre Texte in deutscher Sprache .","name":"Stefan Raab","entities":[],"relations":[]}
{"id":28768,"text":"Im gleichen Jahr moderierte Raab zusammen mit Gülcan Kamps die Veranstaltung zum zehnjährigen Jubiläum des Musikpreises Comet .","name":"Stefan Raab","entities":[{"id":17568,"label":"PER","start_offset":28,"end_offset":32},{"id":17569,"label":"PER","start_offset":46,"end_offset":58},{"id":17570,"label":"MISC","start_offset":120,"end_offset":125}],"relations":[{"id":4008,"from_id":17568,"to_id":17569,"type":"Arbeitskollegen"}]}
{"id":28769,"text":"2007 produzierte Raab die Castingshow SSDSDSSWEMUGABRTLAD – Stefan sucht den Superstar , der singen soll , was er möchte und gerne auch bei RTL auftreten darf – bei der Stefanie Heinzmann gewann .","name":"Stefan Raab","entities":[{"id":17571,"label":"PER","start_offset":17,"end_offset":21},{"id":17572,"label":"MISC","start_offset":38,"end_offset":57},{"id":17573,"label":"PER","start_offset":60,"end_offset":66},{"id":17574,"label":"ORG","start_offset":140,"end_offset":143},{"id":17575,"label":"PER","start_offset":169,"end_offset":187}],"relations":[{"id":4011,"from_id":17571,"to_id":17574,"type":"Kontakt_zu"},{"id":4010,"from_id":17571,"to_id":17575,"type":"Bekanntschaft"},{"id":4009,"from_id":17571,"to_id":17573,"type":"Kurzform"}]}
{"id":28770,"text":"2010 suchte Raab in der achtteiligen Castingshow Unser Star für Oslo den deutschen Teilnehmer für den Eurovision Song Contest 2010 .","name":"Stefan Raab","entities":[{"id":17576,"label":"PER","start_offset":12,"end_offset":16},{"id":17577,"label":"MISC","start_offset":49,"end_offset":59},{"id":17578,"label":"LOC","start_offset":64,"end_offset":68},{"id":17579,"label":"MISC","start_offset":102,"end_offset":125}],"relations":[]}
{"id":28771,"text":"Raab war Juryvorsitzender der Castingshow , die eine Zusammenarbeit der Fernsehsender ProSieben und Das Erste war .","name":"Stefan Raab","entities":[{"id":17580,"label":"PER","start_offset":0,"end_offset":4},{"id":17581,"label":"ORG","start_offset":86,"end_offset":95},{"id":17582,"label":"ORG","start_offset":100,"end_offset":109}],"relations":[{"id":3609,"from_id":17580,"to_id":17582,"type":"arbeitet_bei"},{"id":4013,"from_id":17581,"to_id":17582,"type":"kollaboriert_mit"},{"id":4012,"from_id":17580,"to_id":17581,"type":"arbeitet_bei"}]}
{"id":28772,"text":"Siegerin des Wettbewerbs wurde Lena Meyer-Landrut mit dem Lied Satellite .","name":"Stefan Raab","entities":[{"id":17583,"label":"PER","start_offset":31,"end_offset":49},{"id":17584,"label":"MISC","start_offset":63,"end_offset":72}],"relations":[]}
{"id":28773,"text":"Raab produzierte anschließend ihr Debütalbum My Cassette Player .","name":"Stefan Raab","entities":[{"id":17585,"label":"PER","start_offset":0,"end_offset":4},{"id":17586,"label":"MISC","start_offset":45,"end_offset":63}],"relations":[]}
{"id":28774,"text":"Am 29 .","name":"Stefan Raab","entities":[],"relations":[]}
{"id":28775,"text":"Mai 2010 gewann Lena Meyer-Landrut den Eurovision Song Contest 2010 in Oslo .","name":"Stefan Raab","entities":[{"id":17587,"label":"PER","start_offset":16,"end_offset":34},{"id":17588,"label":"MISC","start_offset":39,"end_offset":62},{"id":17589,"label":"LOC","start_offset":71,"end_offset":75}],"relations":[{"id":3610,"from_id":17587,"to_id":17589,"type":"Aufenthalt_in"}]}
{"id":28776,"text":"Die Sängerin wurde auch für den Eurovision Song Contest 2011 als Vertreterin Deutschlands bestimmt .","name":"Stefan Raab","entities":[{"id":20476,"label":"Coref_PER","start_offset":0,"end_offset":12},{"id":17590,"label":"MISC","start_offset":32,"end_offset":55},{"id":17591,"label":"LOC","start_offset":77,"end_offset":89}],"relations":[{"id":4014,"from_id":20476,"to_id":17591,"type":"Aufenthalt_in"}]}
{"id":28777,"text":"In der dreiteiligen Fernsehshow Unser Song für Deutschland – wieder eine Zusammenarbeit von ProSieben und Das Erste – wurde aus zwölf Kompositionen das Lied für Lena gesucht .","name":"Stefan Raab","entities":[{"id":17592,"label":"MISC","start_offset":32,"end_offset":58},{"id":17593,"label":"ORG","start_offset":92,"end_offset":101},{"id":17594,"label":"ORG","start_offset":106,"end_offset":115},{"id":17595,"label":"PER","start_offset":161,"end_offset":165}],"relations":[{"id":4016,"from_id":17595,"to_id":17593,"type":"arbeitet_bei"},{"id":4015,"from_id":17593,"to_id":17594,"type":"kollaboriert_mit"}]}
{"id":28778,"text":"Raab , wiederum Juryvorsitzender , war an drei dieser Kompositionen beteiligt ; er ist Koproduzent des im Februar 2011 veröffentlichten zweiten Albums der Sängerin , Good News .","name":"Stefan Raab","entities":[{"id":20477,"label":"Coref_PER","start_offset":151,"end_offset":163},{"id":17596,"label":"PER","start_offset":0,"end_offset":4},{"id":17597,"label":"MISC","start_offset":166,"end_offset":175}],"relations":[{"id":4017,"from_id":17596,"to_id":20477,"type":"Arbeitskollegen"}]}
{"id":28779,"text":"Per Televoting gewählt wurde jedoch keine Raab-Komposition , sondern das Lied Taken by a Stranger , mit dem Lena beim Eurovision Song Contest im Mai 2011 den zehnten von 25 Plätzen belegte .","name":"Stefan Raab","entities":[{"id":17598,"label":"MISC","start_offset":78,"end_offset":97},{"id":17599,"label":"PER","start_offset":108,"end_offset":112},{"id":17600,"label":"MISC","start_offset":118,"end_offset":141}],"relations":[]}
{"id":28780,"text":"Moderiert wurde der Wettbewerb von Raab , Anke Engelke und Judith Rakers .","name":"Stefan Raab","entities":[{"id":17601,"label":"PER","start_offset":35,"end_offset":39},{"id":17602,"label":"PER","start_offset":42,"end_offset":54},{"id":17603,"label":"PER","start_offset":59,"end_offset":72}],"relations":[{"id":4019,"from_id":17601,"to_id":17603,"type":"Arbeitskollegen"},{"id":4020,"from_id":17602,"to_id":17603,"type":"Arbeitskollegen"},{"id":4018,"from_id":17601,"to_id":17602,"type":"Arbeitskollegen"}]}
{"id":28781,"text":"Nach dem Eurovision Song Contest 2011 erklärte Raab am 19 .","name":"Stefan Raab","entities":[{"id":17604,"label":"MISC","start_offset":9,"end_offset":32},{"id":17605,"label":"PER","start_offset":47,"end_offset":51}],"relations":[]}
{"id":28782,"text":"Mai 2011 seinen Rückzug von diesem Wettbewerb als Gastgeber , Vorsitzender der Jury , Komponist und Musikproduzent .","name":"Stefan Raab","entities":[],"relations":[]}
{"id":28783,"text":"Kurz vor dem Beginn der Show Unser Star für Baku , in der der deutsche Kandidat für den Eurovision Song Contest 2012 ermittelt wurde , verkündete er allerdings , dass er neben dem neuen Präsidenten Thomas D weiterhin als festes Jurymitglied beteiligt sei .","name":"Stefan Raab","entities":[{"id":20478,"label":"Coref_PER","start_offset":146,"end_offset":148},{"id":17606,"label":"MISC","start_offset":29,"end_offset":39},{"id":17607,"label":"LOC","start_offset":44,"end_offset":48},{"id":17608,"label":"MISC","start_offset":88,"end_offset":111},{"id":17609,"label":"PER","start_offset":198,"end_offset":206}],"relations":[{"id":4021,"from_id":20478,"to_id":17609,"type":"Arbeitskollegen"}]}
{"id":28784,"text":"Von November 2012 bis September 2013 moderierte Stefan Raab die Polit-Talkshow Absolute Mehrheit .","name":"Stefan Raab","entities":[{"id":17610,"label":"PER","start_offset":48,"end_offset":59},{"id":17611,"label":"MISC","start_offset":79,"end_offset":96}],"relations":[]}
{"id":28785,"text":"Anders als bei bekannten Sendungen dieser Art wurde per Telefonabstimmung ermittelt , welcher Gast seine Meinung am besten begründen konnte .","name":"Stefan Raab","entities":[],"relations":[]}
{"id":28786,"text":"Der Gewinner erhielt am Ende der Sendung einen Geldpreis .","name":"Stefan Raab","entities":[],"relations":[]}
{"id":28787,"text":"Im September 2013 war Raab , gemeinsam mit Anne Will , Maybrit Illner und Peter Kloeppel Moderator des Fernsehduells zwischen Angela Merkel und Peer Steinbrück .","name":"Stefan Raab","entities":[{"id":17612,"label":"PER","start_offset":22,"end_offset":26},{"id":17613,"label":"PER","start_offset":43,"end_offset":52},{"id":17614,"label":"PER","start_offset":55,"end_offset":69},{"id":17615,"label":"PER","start_offset":74,"end_offset":88},{"id":17616,"label":"PER","start_offset":126,"end_offset":139},{"id":17617,"label":"PER","start_offset":144,"end_offset":159}],"relations":[{"id":3612,"from_id":17612,"to_id":17615,"type":"Arbeitskollegen"},{"id":3611,"from_id":17612,"to_id":17614,"type":"Arbeitskollegen"},{"id":3614,"from_id":17613,"to_id":17615,"type":"Arbeitskollegen"},{"id":3613,"from_id":17612,"to_id":17617,"type":"Bekanntschaft"},{"id":4031,"from_id":17615,"to_id":17617,"type":"Bekanntschaft"},{"id":4029,"from_id":17614,"to_id":17617,"type":"Bekanntschaft"},{"id":4025,"from_id":17612,"to_id":17616,"type":"Bekanntschaft"},{"id":4024,"from_id":17614,"to_id":17615,"type":"Arbeitskollegen"},{"id":4022,"from_id":17612,"to_id":17613,"type":"Arbeitskollegen"},{"id":4032,"from_id":17616,"to_id":17617,"type":"Gegner_von"},{"id":4030,"from_id":17615,"to_id":17616,"type":"Bekanntschaft"},{"id":4028,"from_id":17614,"to_id":17616,"type":"Bekanntschaft"},{"id":4027,"from_id":17613,"to_id":17617,"type":"Bekanntschaft"},{"id":4026,"from_id":17613,"to_id":17616,"type":"Bekanntschaft"},{"id":4023,"from_id":17613,"to_id":17614,"type":"Arbeitskollegen"}]}
{"id":28788,"text":"Darüber hinaus veranstaltete Raab , nach 2005 und 2009 , zum dritten Mal in Folge eine TV Total-Sondersendung zur Bundestagswahl 2013 , einen Tag vor dem Wahlsonntag .","name":"Stefan Raab","entities":[{"id":17618,"label":"PER","start_offset":29,"end_offset":33}],"relations":[]}
{"id":28789,"text":"Am 17. Juni 2015 gaben Raab und ProSieben bekannt , dass der Entertainer seine TV-Karriere zum Ende des Jahres 2015 beenden werde .","name":"Stefan Raab","entities":[{"id":17619,"label":"PER","start_offset":23,"end_offset":27},{"id":17620,"label":"ORG","start_offset":32,"end_offset":41}],"relations":[{"id":4033,"from_id":17619,"to_id":17620,"type":"ausgetreten_bei"}]}
{"id":28790,"text":"Laut Raab endete die Zusammenarbeit im besten Verhältnis .","name":"Stefan Raab","entities":[{"id":17621,"label":"PER","start_offset":5,"end_offset":9}],"relations":[]}
{"id":29216,"text":"Bach konnte in Köthen für eine hervorragende Kapelle komponieren .","name":"Johann Sebastian Bach","entities":[{"id":18841,"label":"PER","start_offset":0,"end_offset":4},{"id":18842,"label":"LOC","start_offset":15,"end_offset":21}],"relations":[{"id":3733,"from_id":18841,"to_id":18842,"type":"Aufenthalt_in"}]}
{"id":29217,"text":"Fürst Leopold hatte bis zu 17 Musiker angestellt , die zum Teil aus der 1713 aufgelösten Kapelle des preußischen Königs Friedrich Wilhelm I. stammten .","name":"Johann Sebastian Bach","entities":[{"id":18843,"label":"PER","start_offset":6,"end_offset":13},{"id":18844,"label":"PER","start_offset":120,"end_offset":140}],"relations":[]}
{"id":29965,"text":"Wie die materiellen Verhältnisse sich auf die Herrschaftsformen auswirken , so wirken auch die Herrschaftsformen auf die materiellen Verhältnisse zurück .","name":"Karl Marx","entities":[],"relations":[]}
{"id":29966,"text":"Der Historische Materialismus beschreibt deshalb keinen Determinismus des Materiellen , sondern eine dialektische Wechselbeziehung zwischen Sein und Bewusstsein , Notwendigkeit und Freiheit : „ Die Menschen machen ihre eigene Geschichte , aber sie machen sie nicht aus freien Stücken , nicht unter selbst gewählten , sondern unter unmittelbar vorgefundenen , gegebenen und überlieferten Umständen . “ Marx definiert anhand der materiellen und der Herrschaftsverhältnisse verschiedene Phasen der Menschheitsgeschichte .","name":"Karl Marx","entities":[{"id":20152,"label":"PER","start_offset":401,"end_offset":405}],"relations":[]}
{"id":29967,"text":"Die sozioökonomische Entwicklung hätte von der „ freien “ Urgesellschaft über ( in Europa ) Sklavenhalter - und Feudalgesellschaft , zur bourgeoisen ( industriellen kapitalistischen ) Gesellschaft geführt und solle über den durch Revolution zu erreichenden Sozialismus hin zum Kommunismus führen .","name":"Karl Marx","entities":[{"id":20153,"label":"LOC","start_offset":83,"end_offset":89}],"relations":[]}
{"id":29968,"text":"Befördert wird diese Revolution durch die Eigengesetzmäßigkeiten der kapitalistischen Produktion in Form zunehmender Macht - und Kapitalkonzentration ( Akkumulation ) .","name":"Karl Marx","entities":[],"relations":[]}
{"id":30084,"text":"In der Sowjetunion hieß seit 1920 die zweitgrößte Stadt der Wolgadeutschen Republik Marxstadt .","name":"Karl Marx","entities":[{"id":20361,"label":"LOC","start_offset":7,"end_offset":18},{"id":20362,"label":"LOC","start_offset":60,"end_offset":83},{"id":20363,"label":"LOC","start_offset":84,"end_offset":93}],"relations":[{"id":3989,"from_id":20363,"to_id":20362,"type":"liegt_in"},{"id":3988,"from_id":20362,"to_id":20361,"type":"liegt_in"}]}
{"id":30085,"text":"In Wien wurde von 1926 bis 1930 der Karl-Marx-Hof mit 1.382 Wohnungen für etwa 5.000 Bewohner errichtet .","name":"Karl Marx","entities":[{"id":20364,"label":"LOC","start_offset":3,"end_offset":7},{"id":20365,"label":"LOC","start_offset":36,"end_offset":49}],"relations":[{"id":3960,"from_id":20365,"to_id":20364,"type":"liegt_in"}]}
{"id":30086,"text":"In London erinnert in der Dean Street 28 im Stadtteil Soho eine Gedenktafel an Marx , der dort eine Zeit lang mit seiner Familie wohnte .","name":"Karl Marx","entities":[{"id":20452,"label":"Coref_LOC","start_offset":90,"end_offset":94},{"id":20366,"label":"LOC","start_offset":3,"end_offset":9},{"id":20367,"label":"LOC","start_offset":26,"end_offset":40},{"id":20368,"label":"LOC","start_offset":54,"end_offset":58},{"id":20369,"label":"PER","start_offset":79,"end_offset":83}],"relations":[{"id":3962,"from_id":20368,"to_id":20368,"type":"liegt_in"},{"id":3961,"from_id":20368,"to_id":20366,"type":"liegt_in"},{"id":3985,"from_id":20366,"to_id":20367,"type":"liegt_in"},{"id":3987,"from_id":20369,"to_id":20452,"type":"wohnt_in"}]}
